\relax 
\providecommand\hyper@newdestlabel[2]{}
\providecommand\HyperFirstAtBeginDocument{\AtBeginDocument}
\HyperFirstAtBeginDocument{\ifx\hyper@anchor\@undefined
\global\let\oldcontentsline\contentsline
\gdef\contentsline#1#2#3#4{\oldcontentsline{#1}{#2}{#3}}
\global\let\oldnewlabel\newlabel
\gdef\newlabel#1#2{\newlabelxx{#1}#2}
\gdef\newlabelxx#1#2#3#4#5#6{\oldnewlabel{#1}{{#2}{#3}}}
\AtEndDocument{\ifx\hyper@anchor\@undefined
\let\contentsline\oldcontentsline
\let\newlabel\oldnewlabel
\fi}
\fi}
\global\let\hyper@last\relax 
\gdef\HyperFirstAtBeginDocument#1{#1}
\providecommand\HyField@AuxAddToFields[1]{}
\providecommand\HyField@AuxAddToCoFields[2]{}
\@writefile{toc}{\contentsline {section}{\numberline {1}Memoria}{2}{section.1}\protected@file@percent }
\@writefile{toc}{\contentsline {subsection}{\numberline {1.1}Descripción}{2}{subsection.1.1}\protected@file@percent }
\@writefile{toc}{\contentsline {subsection}{\numberline {1.2}Motivación}{2}{subsection.1.2}\protected@file@percent }
\@writefile{toc}{\contentsline {subsection}{\numberline {1.3}Conclusión}{2}{subsection.1.3}\protected@file@percent }
\@writefile{toc}{\contentsline {section}{\numberline {2}Anexos}{2}{section.2}\protected@file@percent }
\@writefile{toc}{\contentsline {subsection}{\numberline {2.1}Diagramas UML}{2}{subsection.2.1}\protected@file@percent }
\@writefile{toc}{\contentsline {subsection}{\numberline {2.2}Código}{2}{subsection.2.2}\protected@file@percent }
\@writefile{toc}{\contentsline {paragraph}{FlickApp proviene de la palabra "Flicks", que en Estados Unidos es una forma coloquial de decir película y "App" de la palabra aplicación.}{3}{section*.1}\protected@file@percent }
\@writefile{toc}{\contentsline {paragraph}{El Proyecto de Fin de Grado es una aplicación en el sistema operativo "Android" basado en el núcleo de Linux, desarrollado por Google el 23 de septiembre de 2008. En cuanto al lenguaje se ha usado Kotlin, un lenguaje de programación que corre sobre la máquina virtual de Java, desarrollado por JetBrains en 2016.}{3}{section*.2}\protected@file@percent }
\@writefile{toc}{\contentsline {paragraph}{El objetivo de la aplicación es la reproducción de contenido multimedia, desde películas, series y música en streaming}{3}{section*.3}\protected@file@percent }
\@writefile{toc}{\contentsline {paragraph}{El contenido a la carta ya estaba a la orden del día, pero por el Coronavirus y sus diversas variantes se ha acentuado y es la forma principal de consumir contenido. A parte es más cómodo y économico que ir al cine. \\ Además nos consideramos muy cinéfilos y principalmente esa razón nos lleva a desarrollar este tipo de aplicación.}{3}{section*.4}\protected@file@percent }
\gdef \@abspage@last{3}
